Initial Data Analysis
…
# frequency of words
complaints_cnt <- complaints_tf_idf %>% 
  group_by(term) %>% 
  summarise(
    count = sum(count)
  ) %>% 
  arrange(desc(count))

complaints_cnt

## # A tibble: 8,283 x 2
##    term       count
##    <chr>      <dbl>
##  1 credit     11142
##  2 account    10330
##  3 report      9120
##  4 inform      4787
##  5 payment     4163
##  6 call        4012
##  7 card        3542
##  8 bank        3321
##  9 receivable  3039
## 10 time        2990
## #  with 8,273 more rows
…
